[
  { "timestamp": "2021-05-13 17:46:29",
    "originURL": "https://www.reddit.com/r/Supernote/comments/nbmlcm/template_tea_tasting/",
    "filename": [ "20210513174629_tea_taste.png" ],
    "tags": [ "tasting" ],
    "owner": "u/nikosan-zero",
    "title": "Tea Tasting",
    "description": ""
  }
]
