[
  { "timestamp": "2021-02-20 19:11:59",
    "originURL": "https://www.reddit.com/r/Supernote/comments/loea43/grid_templates_2mm_2mm_scientific_3mm_and_4mm/",
    "filename": [ "20210220191159_grid_2mm.png" ],
    "tags": [ "grid", "square", "a5x", "2mm" ],
    "owner": "u/tellurian-faberati",
    "title": "Grid (2mm) for A5X",
    "description": ""
  },
  { "timestamp": "2021-02-20 19:11:59",
    "originURL": "https://www.reddit.com/r/Supernote/comments/loea43/grid_templates_2mm_2mm_scientific_3mm_and_4mm/",
    "filename": [ "20210220191159_grid_2mm_scien.png" ],
    "tags": [ "grid", "square", "a5x", "2mm" ],
    "owner": "u/tellurian-faberati",
    "title": "Grid (2mm scientific) for A5X",
    "description": ""
  },
  { "timestamp": "2021-02-20 19:11:59",
    "originURL": "https://www.reddit.com/r/Supernote/comments/loea43/grid_templates_2mm_2mm_scientific_3mm_and_4mm/",
    "filename": [ "20210220191159_grid_3mm.png" ],
    "tags": [ "grid", "square", "a5x", "3mm" ],
    "owner": "u/tellurian-faberati",
    "title": "Grid (3mm) for A5X",
    "description": ""
  },
  { "timestamp": "2021-02-20 19:11:59",
    "originURL": "https://www.reddit.com/r/Supernote/comments/loea43/grid_templates_2mm_2mm_scientific_3mm_and_4mm/",
    "filename": [ "20210220191159_grid_4mm.png" ],
    "tags": [ "grid", "square", "a5x", "4mm" ],
    "owner": "u/tellurian-faberati",
    "title": "Grid (4mm) for A5X",
    "description": ""
  }
]