[
  { "timestamp": "2021-02-08 13:17:35",
    "originURL": "https://www.reddit.com/r/Supernote/comments/lfbl44/sharing_my_version_of_meeting_minutes_todo/",
    "filename": [ "20210208131735_meeting.png" ],
    "tags": [ "log", "meeting" ],
    "owner": "u/Hot_Manner_4433",
    "title": "Meeting Minutes + To-Do",
    "description": ""
  }
]
