[
  { "timestamp": "2021-02-14 10:02:14",
    "originURL": "https://www.reddit.com/r/Supernote/comments/ljlrys/minimalist_day_planners_black_or_white/",
    "filename": [ "20210214100214_daily_white.png", "20210214100214_daily_black.png" ],
    "tags": [ "planner", "daily" ],
    "owner": "u/jjonst",
    "title": "Minimalist Day Planner",
    "description": ""
  }
]
