[
  { "timestamp": "2022-02-17 22:26:55",
    "originURL": "https://www.reddit.com/r/Supernote/comments/sv18jm/social_log_to_track_where_your_attention_is_going/",
    "filename": [ "20220217222655_social.png" ],
    "tags": [ "tracker" ],
    "owner": "u/AuroraGrace123",
    "title": "Social Log",
    "description": ""
  }
]