[
  { "timestamp": "2022-03-25 20:12:41",
    "originURL": "https://www.reddit.com/r/Supernote/comments/tnxzew/reading_journal/",
    "filename": [ "20220325201241_reading.png" ],
    "tags": [ "journal" ],
    "owner": "u/TrickyScene238",
    "title": "Reading Journal",
    "description": ""
  }
]