[
  { "timestamp": "2022-07-15 18:51:29",
    "originURL": "https://www.reddit.com/r/Supernote/comments/vzw66q/todo_templates/",
    "filename": [ "20220715185129_todo_business.png" ],
    "tags": [ "planner" ],
    "owner": "u/Michi0105",
    "title": "Business TODO",
    "description": ""
  },
  { "timestamp": "2022-07-15 18:51:29",
    "originURL": "https://www.reddit.com/r/Supernote/comments/vzw66q/todo_templates/",
    "filename": [ "20220715185129_todo_personal.png" ],
    "tags": [ "planner" ],
    "owner": "u/Michi0105",
    "title": "Personal TODO",
    "description": ""
  }
]