[
  { "timestamp": "2022-06-20 09:45:37",
    "originURL": "https://www.reddit.com/r/Supernote/comments/vghpci/travel_planner_templates/",
    "filename": [ "20220620094537_packing.png" ],
    "tags": [ "checklist" ],
    "owner": "u/henjifire",
    "title": "Packing Checklist",
    "description": ""
  },
  { "timestamp": "2022-06-20 09:45:37",
    "originURL": "https://www.reddit.com/r/Supernote/comments/vghpci/travel_planner_templates/",
    "filename": [ "20220620094537_expense.png" ],
    "tags": [ "tracker" ],
    "owner": "u/henjifire",
    "title": "Expense Tracker",
    "description": ""
  },
  { "timestamp": "2022-06-20 09:45:37",
    "originURL": "https://www.reddit.com/r/Supernote/comments/vghpci/travel_planner_templates/",
    "filename": [ "20220620094537_activity.png" ],
    "tags": [ "tracker" ],
    "owner": "u/henjifire",
    "title": "Daily Activities",
    "description": ""
  }
]