[
  { "timestamp": "2022-09-10 10:49:59",
    "originURL": "https://www.reddit.com/r/Supernote/comments/xamd20/who_wants_to_play_skyjo/",
    "filename": [ "20220910104959_skyjo.png" ],
    "tags": [ "game" ],
    "owner": "u/Immediate_Flamingo25",
    "title": "Skyjo Scoring",
    "description": ""
  }
]