[
  { "timestamp": "2022-06-21 14:12:06",
    "originURL": "https://www.reddit.com/r/Supernote/comments/vhe9zb/storyboard_for_content_ideas/",
    "filename": [ "20220621141206_storyboard.png" ],
    "tags": [ "storyboard" ],
    "owner": "u/Letchworth_Tim",
    "title": "Content Idea Storyboard",
    "description": ""
  }
]