[
  { "timestamp": "2022-05-17 13:24:20",
    "originURL": "https://www.reddit.com/r/Supernote/comments/urmdzh/notes_postit_tasks_larger_spaced_tasks/",
    "filename": [ "20220517132420_task_notes_spaced.png" ],
    "tags": [ "planner", "notes" ],
    "owner": "u/Suspicious_Novel6428",
    "title": "Tasks and Notes (more separation)",
    "description": ""
  }
]