[
  { "timestamp": "2022-09-13 20:26:34",
    "originURL": "https://github.com/Garonenur/supernotetemplates",
    "filename": [ "type_git.png" ],
    "tags": [ "git" ],
    "owner": "u/Equal-Promotion-8132",
    "title": "Garonenur/supernotetemplates",
    "description": ""
  }
]
